Final Project - Mod9
…
## 22                Lambeth       37
## 23               Lewisham      233
## 24                 Merton      244
## 25                 Newham      164
## 26              Redbridge      247
## 27   Richmond upon Thames      105
## 28              Southwark       34
## 29                 Sutton       98
## 30          Tower Hamlets      263
## 31         Waltham Forest      228
## 32             Wandsworth        5
## 33            Westminster      153
## 
## $gan_dist
## # A tibble: 33 x 2
##    name                 ganancia
##    <chr>                   <dbl>
##  1 Barking and Dagenham    15785
##  2 Barnet                  13694
##  3 Bexley                  17030
##  4 Brent                   20115
##  5 Bromley                   791
##  6 Camden                  15796
##  7 City of London             35
##  8 Croydon                 14165
##  9 Ealing                    740
## 10 Enfield                 13866
## #  with 23 more rows
## 
## $media_dist
## # A tibble: 33 x 2
##    name                 edad_media
##    <chr>                     <dbl>
##  1 Barking and Dagenham       45.4
##  2 Barnet                     44.8
##  3 Bexley                     44.0
##  4 Brent                      44.5
##  5 Bromley                    45.1
##  6 Camden                     47.6
##  7 City of London             47  
##  8 Croydon                    47.2
##  9 Ealing                     46.9
## 10 Enfield                    45.1
## #  with 23 more rows
…
